<?xml version="1.0" encoding="utf-8"?>
<!DOCTYPE eagle SYSTEM "eagle.dtd">
<eagle version="6.6.0">
<drawing>
<settings>
<setting alwaysvectorfont="no"/>
<setting verticaltext="up"/>
</settings>
<grid distance="0.1" unitdist="inch" unit="inch" style="lines" multiple="1" display="no" altdistance="0.01" altunitdist="inch" altunit="inch"/>
<layers>
<layer number="1" name="Top" color="4" fill="1" visible="yes" active="yes"/>
<layer number="16" name="Bottom" color="1" fill="1" visible="no" active="yes"/>
<layer number="17" name="Pads" color="2" fill="1" visible="no" active="yes"/>
<layer number="18" name="Vias" color="2" fill="1" visible="no" active="yes"/>
<layer number="19" name="Unrouted" color="6" fill="1" visible="no" active="yes"/>
<layer number="20" name="Dimension" color="15" fill="1" visible="no" active="yes"/>
<layer number="21" name="tPlace" color="7" fill="1" visible="no" active="yes"/>
<layer number="22" name="bPlace" color="7" fill="1" visible="no" active="yes"/>
<layer number="23" name="tOrigins" color="15" fill="1" visible="no" active="yes"/>
<layer number="24" name="bOrigins" color="15" fill="1" visible="no" active="yes"/>
<layer number="25" name="tNames" color="7" fill="1" visible="no" active="yes"/>
<layer number="26" name="bNames" color="7" fill="1" visible="no" active="yes"/>
<layer number="27" name="tValues" color="7" fill="1" visible="no" active="yes"/>
<layer number="28" name="bValues" color="7" fill="1" visible="no" active="yes"/>
<layer number="29" name="tStop" color="7" fill="3" visible="no" active="yes"/>
<layer number="30" name="bStop" color="7" fill="6" visible="no" active="yes"/>
<layer number="31" name="tCream" color="7" fill="4" visible="no" active="yes"/>
<layer number="32" name="bCream" color="7" fill="5" visible="no" active="yes"/>
<layer number="33" name="tFinish" color="6" fill="3" visible="no" active="yes"/>
<layer number="34" name="bFinish" color="6" fill="6" visible="no" active="yes"/>
<layer number="35" name="tGlue" color="7" fill="4" visible="no" active="yes"/>
<layer number="36" name="bGlue" color="7" fill="5" visible="no" active="yes"/>
<layer number="37" name="tTest" color="7" fill="1" visible="no" active="yes"/>
<layer number="38" name="bTest" color="7" fill="1" visible="no" active="yes"/>
<layer number="39" name="tKeepout" color="4" fill="11" visible="no" active="yes"/>
<layer number="40" name="bKeepout" color="1" fill="11" visible="no" active="yes"/>
<layer number="41" name="tRestrict" color="4" fill="10" visible="no" active="yes"/>
<layer number="42" name="bRestrict" color="1" fill="10" visible="no" active="yes"/>
<layer number="43" name="vRestrict" color="2" fill="10" visible="no" active="yes"/>
<layer number="44" name="Drills" color="7" fill="1" visible="no" active="yes"/>
<layer number="45" name="Holes" color="7" fill="1" visible="no" active="yes"/>
<layer number="46" name="Milling" color="3" fill="1" visible="no" active="yes"/>
<layer number="47" name="Measures" color="7" fill="1" visible="no" active="yes"/>
<layer number="48" name="Document" color="7" fill="1" visible="no" active="yes"/>
<layer number="49" name="Reference" color="7" fill="1" visible="no" active="yes"/>
<layer number="51" name="tDocu" color="7" fill="1" visible="no" active="yes"/>
<layer number="52" name="bDocu" color="7" fill="1" visible="no" active="yes"/>
<layer number="91" name="Nets" color="2" fill="1" visible="yes" active="yes"/>
<layer number="92" name="Busses" color="1" fill="1" visible="yes" active="yes"/>
<layer number="93" name="Pins" color="2" fill="1" visible="yes" active="yes"/>
<layer number="94" name="Symbols" color="4" fill="1" visible="yes" active="yes"/>
<layer number="95" name="Names" color="7" fill="1" visible="yes" active="yes"/>
<layer number="96" name="Values" color="7" fill="1" visible="yes" active="yes"/>
<layer number="97" name="Info" color="7" fill="1" visible="yes" active="yes"/>
<layer number="98" name="Guide" color="6" fill="1" visible="yes" active="yes"/>
</layers>
<library>
<packages>
<package name="SOT223">
<description>&lt;b&gt;Small Outline Transistor&lt;/b&gt;</description>
<wire x1="3.2766" y1="1.778" x2="3.2766" y2="-1.778" width="0.2032" layer="21"/>
<wire x1="3.2766" y1="-1.778" x2="-3.2766" y2="-1.778" width="0.2032" layer="21"/>
<wire x1="-3.2766" y1="-1.778" x2="-3.2766" y2="1.778" width="0.2032" layer="21"/>
<wire x1="-3.2766" y1="1.778" x2="3.2766" y2="1.778" width="0.2032" layer="21"/>
<smd name="1" x="-2.3114" y="-3.0988" dx="1" dy="1.5" layer="1"/>
<smd name="2" x="0" y="-3.0988" dx="1" dy="1.5" layer="1"/>
<smd name="3" x="2.3114" y="-3.0988" dx="1" dy="1.5" layer="1"/>
<text x="1.0208" y="-4.318" size="0.8128" layer="21" ratio="12">3</text>
<text x="1.905" y="2.54" size="0.8128" layer="21" ratio="12">4</text>
<text x="-3.4526" y="-4.318" size="0.8128" layer="21" ratio="12">1</text>
<text x="-1.2906" y="-4.3274" size="0.8128" layer="21" ratio="12">2</text>
<text x="-2.54" y="0.0508" size="1.27" layer="25">&gt;NAME</text>
<text x="-2.54" y="-1.3208" size="1.27" layer="27">&gt;VALUE</text>
<rectangle x1="-1.6002" y1="1.8034" x2="1.6002" y2="3.6576" layer="51"/>
<rectangle x1="-0.4318" y1="-3.6576" x2="0.4318" y2="-1.8034" layer="51"/>
<rectangle x1="-2.7432" y1="-3.6576" x2="-1.8796" y2="-1.8034" layer="51"/>
<rectangle x1="1.8796" y1="-3.6576" x2="2.7432" y2="-1.8034" layer="51"/>
<rectangle x1="-1.6002" y1="1.8034" x2="1.6002" y2="3.6576" layer="51"/>
<rectangle x1="-0.4318" y1="-3.6576" x2="0.4318" y2="-1.8034" layer="51"/>
<rectangle x1="-2.7432" y1="-3.6576" x2="-1.8796" y2="-1.8034" layer="51"/>
<rectangle x1="1.8796" y1="-3.6576" x2="2.7432" y2="-1.8034" layer="51"/>
</package>
<package name="SOT89">
<description>&lt;b&gt;SMALL OUTLINE TRANSISTOR&lt;/b&gt;</description>
<wire x1="-2.473" y1="2.983" x2="2.473" y2="2.983" width="0.0508" layer="39"/>
<wire x1="2.473" y1="-2.983" x2="-2.473" y2="-2.983" width="0.0508" layer="39"/>
<wire x1="-2.473" y1="-2.983" x2="-2.473" y2="2.983" width="0.0508" layer="39"/>
<wire x1="2.473" y1="2.983" x2="2.473" y2="-2.983" width="0.0508" layer="39"/>
<wire x1="2.235" y1="-1.245" x2="-2.235" y2="-1.245" width="0.1524" layer="51"/>
<wire x1="2.235" y1="1.219" x2="2.235" y2="-1.245" width="0.1524" layer="51"/>
<wire x1="-2.235" y1="-1.245" x2="-2.235" y2="1.219" width="0.1524" layer="51"/>
<wire x1="-2.235" y1="1.219" x2="2.235" y2="1.219" width="0.1524" layer="51"/>
<wire x1="-0.7874" y1="1.5748" x2="-0.3556" y2="2.0066" width="0.2032" layer="51"/>
<wire x1="-0.3556" y1="2.0066" x2="0.3556" y2="2.0066" width="0.2032" layer="51"/>
<wire x1="0.3556" y1="2.0066" x2="0.7874" y2="1.5748" width="0.2032" layer="51"/>
<wire x1="0.7874" y1="1.5748" x2="0.7874" y2="1.2954" width="0.2032" layer="51"/>
<wire x1="0.7874" y1="1.2954" x2="-0.7874" y2="1.2954" width="0.2032" layer="51"/>
<wire x1="-0.7874" y1="1.2954" x2="-0.7874" y2="1.5748" width="0.2032" layer="51"/>
<wire x1="-0.254" y1="-1.143" x2="-0.254" y2="-0.762" width="0.254" layer="43"/>
<wire x1="-0.254" y1="-0.762" x2="-0.381" y2="-0.762" width="0.254" layer="43"/>
<wire x1="-0.381" y1="-0.762" x2="-0.889" y2="-0.254" width="0.254" layer="43"/>
<wire x1="-0.889" y1="-0.254" x2="-0.889" y2="2.159" width="0.254" layer="43"/>
<wire x1="-0.889" y1="2.159" x2="-0.381" y2="2.667" width="0.254" layer="43"/>
<wire x1="-0.381" y1="2.667" x2="0.381" y2="2.667" width="0.254" layer="43"/>
<wire x1="0.381" y1="2.667" x2="0.889" y2="2.159" width="0.254" layer="43"/>
<wire x1="0.889" y1="2.159" x2="0.889" y2="-0.254" width="0.254" layer="43"/>
<wire x1="0.889" y1="-0.254" x2="0.381" y2="-0.762" width="0.254" layer="43"/>
<wire x1="0.381" y1="-0.762" x2="0.254" y2="-0.762" width="0.254" layer="43"/>
<wire x1="0.254" y1="-0.762" x2="0.254" y2="-1.143" width="0.254" layer="43"/>
<wire x1="0" y1="-1.143" x2="0" y2="-0.762" width="0.254" layer="43"/>
<wire x1="0" y1="-0.762" x2="0" y2="0" width="0.762" layer="43"/>
<wire x1="0" y1="0" x2="0" y2="1.778" width="1.6764" layer="43"/>
<wire x1="-0.254" y1="-1.143" x2="-0.254" y2="-0.762" width="0.254" layer="41"/>
<wire x1="-0.254" y1="-0.762" x2="-0.381" y2="-0.762" width="0.254" layer="41"/>
<wire x1="-0.381" y1="-0.762" x2="-0.889" y2="-0.254" width="0.254" layer="41"/>
<wire x1="-0.889" y1="-0.254" x2="-0.889" y2="2.159" width="0.254" layer="41"/>
<wire x1="-0.889" y1="2.159" x2="-0.381" y2="2.667" width="0.254" layer="41"/>
<wire x1="-0.381" y1="2.667" x2="0.381" y2="2.667" width="0.254" layer="41"/>
<wire x1="0.381" y1="2.667" x2="0.889" y2="2.159" width="0.254" layer="41"/>
<wire x1="0.889" y1="2.159" x2="0.889" y2="-0.254" width="0.254" layer="41"/>
<wire x1="0.889" y1="-0.254" x2="0.381" y2="-0.762" width="0.254" layer="41"/>
<wire x1="0.381" y1="-0.762" x2="0.254" y2="-0.762" width="0.254" layer="41"/>
<wire x1="0.254" y1="-0.762" x2="0.254" y2="-1.143" width="0.254" layer="41"/>
<wire x1="0" y1="-0.762" x2="0" y2="0" width="0.762" layer="41"/>
<wire x1="0" y1="0" x2="0" y2="1.778" width="1.6764" layer="41"/>
<wire x1="0" y1="0.1905" x2="0" y2="1.651" width="1.8" layer="31"/>
<smd name="VSS" x="-1.499" y="-1.981" dx="0.8" dy="1.4" layer="1"/>
<smd name="VOUT" x="1.499" y="-1.981" dx="0.8" dy="1.4" layer="1"/>
<smd name="VIN" x="0" y="-1.727" dx="0.8" dy="1.9" layer="1" stop="no" cream="no"/>
<smd name="VIN2" x="0" y="0.889" dx="2" dy="3.5" layer="1" roundness="75" cream="no"/>
<text x="-2.54" y="3.175" size="1.27" layer="25">&gt;NAME</text>
<text x="-2.4051" y="-4.3449" size="1.27" layer="27">&gt;VALUE</text>
<rectangle x1="-1.7272" y1="-2.1082" x2="-1.27" y2="-1.27" layer="51"/>
<rectangle x1="1.27" y1="-2.1082" x2="1.7272" y2="-1.27" layer="51"/>
<rectangle x1="-0.2794" y1="-2.1082" x2="0.2794" y2="-1.27" layer="51"/>
<rectangle x1="-0.508" y1="-2.794" x2="0.508" y2="-1.27" layer="29"/>
<rectangle x1="-0.381" y1="-2.667" x2="0.381" y2="-1.3335" layer="31"/>
<polygon width="0.1998" layer="51">
<vertex x="-0.7874" y="1.3208"/>
<vertex x="-0.7874" y="1.5748"/>
<vertex x="-0.3556" y="2.0066"/>
<vertex x="0.3048" y="2.0066"/>
<vertex x="0.3556" y="2.0066"/>
<vertex x="0.7874" y="1.5748"/>
<vertex x="0.7874" y="1.2954"/>
<vertex x="-0.7874" y="1.2954"/>
</polygon>
</package>
</packages>
<symbols>
<symbol name="MCP1703">
<wire x1="-7.62" y1="5.08" x2="7.62" y2="5.08" width="0.254" layer="94"/>
<wire x1="7.62" y1="5.08" x2="7.62" y2="-5.08" width="0.254" layer="94"/>
<wire x1="7.62" y1="-5.08" x2="-7.62" y2="-5.08" width="0.254" layer="94"/>
<wire x1="-7.62" y1="-5.08" x2="-7.62" y2="5.08" width="0.254" layer="94"/>
<text x="-2.413" y="-4.318" size="1.524" layer="95">GND</text>
<text x="-7.62" y="6.35" size="1.778" layer="95">&gt;NAME</text>
<text x="-6.35" y="-1.27" size="1.778" layer="96">&gt;VALUE</text>
<pin name="VIN" x="-10.16" y="2.54" length="short" direction="in"/>
<pin name="VO" x="10.16" y="2.54" length="short" direction="out" rot="R180"/>
<pin name="GND" x="0" y="-7.62" visible="pad" length="short" direction="pwr" rot="R90"/>
</symbol>
</symbols>
<devicesets>
<deviceset name="MCP1703" prefix="IC">
<description>&lt;b&gt;Ultra-Low Quiescent Current LDO Voltage Regulator&lt;/b&gt;&lt;p&gt;
Source: &lt;a href="http://www.national.com/ds/LM/LM2936.pdf"&gt; Data sheet&lt;/a&gt;</description>
<gates>
<gate name="G$1" symbol="MCP1703" x="0" y="0"/>
</gates>
<devices>
<device name="" package="SOT223">
<connects>
<connect gate="G$1" pin="GND" pad="2"/>
<connect gate="G$1" pin="VIN" pad="1"/>
<connect gate="G$1" pin="VO" pad="3"/>
</connects>
<technologies>
<technology name=""/>
</technologies>
</device>
</devices>
</deviceset>
</devicesets>
</library>
</drawing>
</eagle>
