<?xml version="1.0" encoding="utf-8"?>
<!DOCTYPE eagle SYSTEM "eagle.dtd">
<eagle version="6.3">
<drawing>
<settings>
<setting alwaysvectorfont="no"/>
<setting verticaltext="up"/>
</settings>
<grid distance="0.1" unitdist="inch" unit="inch" style="lines" multiple="1" display="no" altdistance="0.01" altunitdist="inch" altunit="inch"/>
<layers>
<layer number="1" name="Top" color="4" fill="1" visible="yes" active="yes"/>
<layer number="16" name="Bottom" color="1" fill="1" visible="yes" active="yes"/>
<layer number="17" name="Pads" color="2" fill="1" visible="yes" active="yes"/>
<layer number="18" name="Vias" color="2" fill="1" visible="yes" active="yes"/>
<layer number="19" name="Unrouted" color="6" fill="1" visible="yes" active="yes"/>
<layer number="20" name="Dimension" color="15" fill="1" visible="yes" active="yes"/>
<layer number="21" name="tPlace" color="7" fill="1" visible="yes" active="yes"/>
<layer number="22" name="bPlace" color="7" fill="1" visible="yes" active="yes"/>
<layer number="23" name="tOrigins" color="15" fill="1" visible="yes" active="yes"/>
<layer number="24" name="bOrigins" color="15" fill="1" visible="yes" active="yes"/>
<layer number="25" name="tNames" color="7" fill="1" visible="yes" active="yes"/>
<layer number="26" name="bNames" color="7" fill="1" visible="yes" active="yes"/>
<layer number="27" name="tValues" color="7" fill="1" visible="yes" active="yes"/>
<layer number="28" name="bValues" color="7" fill="1" visible="yes" active="yes"/>
<layer number="29" name="tStop" color="7" fill="3" visible="no" active="yes"/>
<layer number="30" name="bStop" color="7" fill="6" visible="no" active="yes"/>
<layer number="31" name="tCream" color="7" fill="4" visible="no" active="yes"/>
<layer number="32" name="bCream" color="7" fill="5" visible="no" active="yes"/>
<layer number="33" name="tFinish" color="6" fill="3" visible="no" active="yes"/>
<layer number="34" name="bFinish" color="6" fill="6" visible="no" active="yes"/>
<layer number="35" name="tGlue" color="7" fill="4" visible="no" active="yes"/>
<layer number="36" name="bGlue" color="7" fill="5" visible="no" active="yes"/>
<layer number="37" name="tTest" color="7" fill="1" visible="no" active="yes"/>
<layer number="38" name="bTest" color="7" fill="1" visible="no" active="yes"/>
<layer number="39" name="tKeepout" color="4" fill="11" visible="yes" active="yes"/>
<layer number="40" name="bKeepout" color="1" fill="11" visible="yes" active="yes"/>
<layer number="41" name="tRestrict" color="4" fill="10" visible="yes" active="yes"/>
<layer number="42" name="bRestrict" color="1" fill="10" visible="yes" active="yes"/>
<layer number="43" name="vRestrict" color="2" fill="10" visible="yes" active="yes"/>
<layer number="44" name="Drills" color="7" fill="1" visible="no" active="yes"/>
<layer number="45" name="Holes" color="7" fill="1" visible="no" active="yes"/>
<layer number="46" name="Milling" color="3" fill="1" visible="no" active="yes"/>
<layer number="47" name="Measures" color="7" fill="1" visible="no" active="yes"/>
<layer number="48" name="Document" color="7" fill="1" visible="yes" active="yes"/>
<layer number="49" name="Reference" color="7" fill="1" visible="yes" active="yes"/>
<layer number="50" name="dxf" color="7" fill="1" visible="no" active="no"/>
<layer number="51" name="tDocu" color="7" fill="1" visible="yes" active="yes"/>
<layer number="52" name="bDocu" color="7" fill="1" visible="yes" active="yes"/>
<layer number="91" name="Nets" color="2" fill="1" visible="yes" active="yes"/>
<layer number="92" name="Busses" color="1" fill="1" visible="yes" active="yes"/>
<layer number="93" name="Pins" color="2" fill="1" visible="no" active="yes"/>
<layer number="94" name="Symbols" color="4" fill="1" visible="yes" active="yes"/>
<layer number="95" name="Names" color="7" fill="1" visible="yes" active="yes"/>
<layer number="96" name="Values" color="7" fill="1" visible="yes" active="yes"/>
<layer number="97" name="Info" color="7" fill="1" visible="yes" active="yes"/>
<layer number="98" name="Guide" color="6" fill="1" visible="yes" active="yes"/>
<layer number="100" name="Muster" color="7" fill="1" visible="no" active="no"/>
<layer number="101" name="Patch_Top" color="12" fill="4" visible="no" active="yes"/>
<layer number="102" name="Vscore" color="7" fill="1" visible="no" active="yes"/>
<layer number="116" name="Patch_BOT" color="9" fill="4" visible="no" active="yes"/>
<layer number="250" name="Descript" color="3" fill="1" visible="no" active="no"/>
<layer number="251" name="SMDround" color="12" fill="11" visible="no" active="no"/>
<layer number="254" name="cooling" color="7" fill="1" visible="no" active="yes"/>
</layers>
<library>
<packages>
<package name="CONMOLEX6PIN">
<wire x1="-1.905" y1="-4.445" x2="1.905" y2="-4.445" width="0.127" layer="21"/>
<wire x1="1.905" y1="-4.445" x2="1.905" y2="4.445" width="0.127" layer="21"/>
<wire x1="1.905" y1="4.445" x2="-1.27" y2="4.445" width="0.127" layer="21"/>
<wire x1="-1.27" y1="4.445" x2="-1.905" y2="3.81" width="0.127" layer="21"/>
<wire x1="-1.905" y1="3.81" x2="-1.905" y2="-4.445" width="0.127" layer="21"/>
<wire x1="-2.54" y1="5.08" x2="-2.54" y2="-5.08" width="0.127" layer="21"/>
<wire x1="-2.54" y1="-5.08" x2="2.54" y2="-5.08" width="0.127" layer="21"/>
<wire x1="2.54" y1="-5.08" x2="2.54" y2="5.08" width="0.127" layer="21"/>
<wire x1="2.54" y1="5.08" x2="-2.54" y2="5.08" width="0.127" layer="21"/>
<pad name="3" x="-1.27" y="0" drill="0.8" diameter="1.6" shape="octagon"/>
<pad name="2" x="1.27" y="1.27" drill="0.8" diameter="1.6" shape="octagon"/>
<pad name="4" x="1.27" y="-1.27" drill="0.8" diameter="1.6" shape="octagon"/>
<pad name="5" x="-1.27" y="-2.54" drill="0.8" diameter="1.6" shape="octagon"/>
<pad name="1" x="-1.27" y="2.54" drill="0.8" diameter="1.6" shape="octagon"/>
<pad name="6" x="1.27" y="-3.81" drill="0.8" diameter="1.6" shape="octagon"/>
<hole x="0.635" y="3.81" drill="1.4224"/>
</package>
<package name="CONMOLEX8PIN">
<wire x1="-1.905" y1="-5.08" x2="1.905" y2="-5.08" width="0.127" layer="21"/>
<wire x1="1.905" y1="-5.08" x2="1.905" y2="6.35" width="0.127" layer="21"/>
<wire x1="1.905" y1="6.35" x2="-1.27" y2="6.35" width="0.127" layer="21"/>
<wire x1="-1.27" y1="6.35" x2="-1.905" y2="5.715" width="0.127" layer="21"/>
<wire x1="-1.905" y1="5.715" x2="-1.905" y2="-5.08" width="0.127" layer="21"/>
<wire x1="-2.54" y1="6.985" x2="-2.54" y2="-5.715" width="0.127" layer="21"/>
<wire x1="-2.54" y1="-5.715" x2="2.54" y2="-5.715" width="0.127" layer="21"/>
<wire x1="2.54" y1="-5.715" x2="2.54" y2="6.985" width="0.127" layer="21"/>
<wire x1="2.54" y1="6.985" x2="-2.54" y2="6.985" width="0.127" layer="21"/>
<pad name="3" x="-1.27" y="1.905" drill="0.8" diameter="1.6" shape="octagon"/>
<pad name="2" x="1.27" y="3.175" drill="0.8" diameter="1.6" shape="octagon"/>
<pad name="4" x="1.27" y="0.635" drill="0.8" diameter="1.6" shape="octagon"/>
<pad name="5" x="-1.27" y="-0.635" drill="0.8" diameter="1.6" shape="octagon"/>
<pad name="1" x="-1.27" y="4.445" drill="0.8" diameter="1.6" shape="octagon"/>
<pad name="6" x="1.27" y="-1.905" drill="0.8" diameter="1.6" shape="octagon"/>
<pad name="7" x="-1.27" y="-3.175" drill="0.8" diameter="1.6" shape="octagon"/>
<pad name="8" x="1.27" y="-4.445" drill="0.8" diameter="1.6" shape="octagon"/>
<hole x="0.635" y="5.715" drill="1.4224"/>
</package>
<package name="CONMOLEX4PIN">
<wire x1="-1.905" y1="-2.54" x2="1.905" y2="-2.54" width="0.127" layer="21"/>
<wire x1="1.905" y1="-2.54" x2="1.905" y2="3.81" width="0.127" layer="21"/>
<wire x1="1.905" y1="3.81" x2="-1.27" y2="3.81" width="0.127" layer="21"/>
<wire x1="-1.27" y1="3.81" x2="-1.905" y2="3.175" width="0.127" layer="21"/>
<wire x1="-1.905" y1="3.175" x2="-1.905" y2="-2.54" width="0.127" layer="21"/>
<wire x1="-2.54" y1="4.445" x2="-2.54" y2="-3.175" width="0.127" layer="21"/>
<wire x1="-2.54" y1="-3.175" x2="2.54" y2="-3.175" width="0.127" layer="21"/>
<wire x1="2.54" y1="-3.175" x2="2.54" y2="4.445" width="0.127" layer="21"/>
<wire x1="2.54" y1="4.445" x2="-2.54" y2="4.445" width="0.127" layer="21"/>
<pad name="3" x="-1.27" y="-0.635" drill="0.8" diameter="1.6" shape="octagon"/>
<pad name="2" x="1.27" y="0.635" drill="0.8" diameter="1.6" shape="octagon"/>
<pad name="4" x="1.27" y="-1.905" drill="0.8" diameter="1.6" shape="octagon"/>
<pad name="1" x="-1.27" y="1.905" drill="0.8" diameter="1.6" shape="octagon"/>
<hole x="0.635" y="3.175" drill="1.4224"/>
</package>
<package name="MICROMATCH8SMD">
<smd name="P$6" x="-3.175" y="2.286" dx="1.5" dy="3.1" layer="1" rot="R180"/>
<smd name="P$5" x="-1.905" y="-2.286" dx="1.5" dy="3.1" layer="1" rot="R180"/>
<smd name="P$4" x="-0.635" y="2.286" dx="1.5" dy="3.1" layer="1" rot="R180"/>
<smd name="P$3" x="0.635" y="-2.286" dx="1.5" dy="3.1" layer="1"/>
<smd name="P$2" x="1.905" y="2.286" dx="1.5" dy="3.1" layer="1"/>
<smd name="P$1" x="3.175" y="-2.286" dx="1.5" dy="3.1" layer="1"/>
<wire x1="-3.175" y1="0.762" x2="-3.175" y2="3.429" width="0.4064" layer="51"/>
<wire x1="-0.635" y1="0.762" x2="-0.635" y2="3.429" width="0.4064" layer="51"/>
<wire x1="1.905" y1="0.762" x2="1.905" y2="3.429" width="0.4064" layer="51"/>
<wire x1="-1.905" y1="-0.762" x2="-1.905" y2="-3.429" width="0.4064" layer="51"/>
<wire x1="0.635" y1="-0.762" x2="0.635" y2="-3.429" width="0.4064" layer="51"/>
<wire x1="3.175" y1="-0.762" x2="3.175" y2="-3.429" width="0.4064" layer="51"/>
<wire x1="5.08" y1="-1.905" x2="5.08" y2="-2.54" width="0.127" layer="21"/>
<wire x1="5.08" y1="-2.54" x2="-7.62" y2="-2.54" width="0.127" layer="21"/>
<wire x1="-7.62" y1="-2.54" x2="-7.62" y2="2.54" width="0.127" layer="21"/>
<wire x1="-7.62" y1="2.54" x2="5.08" y2="2.54" width="0.127" layer="21"/>
<circle x="4.6" y="1.05" radius="0.75" width="0.127" layer="21"/>
<wire x1="5.08" y1="2.54" x2="5.08" y2="1.905" width="0.127" layer="21"/>
<wire x1="5.08" y1="1.905" x2="5.08" y2="1.651" width="0.127" layer="21"/>
<wire x1="5.08" y1="-1.905" x2="3.81" y2="-1.905" width="0.127" layer="21"/>
<wire x1="3.81" y1="-1.905" x2="3.81" y2="1.905" width="0.127" layer="21"/>
<wire x1="3.81" y1="1.905" x2="5.08" y2="1.905" width="0.127" layer="21"/>
<text x="-1.27" y="5.08" size="1.27" layer="25">&gt;NAME</text>
<circle x="4" y="-3" radius="0.25" width="0.5" layer="51"/>
<smd name="P$8" x="-5.715" y="2.286" dx="1.5" dy="3.1" layer="1" rot="R180"/>
<smd name="P$7" x="-4.445" y="-2.286" dx="1.5" dy="3.1" layer="1" rot="R180"/>
<wire x1="-5.715" y1="0.762" x2="-5.715" y2="3.429" width="0.4064" layer="51"/>
<wire x1="-4.445" y1="-0.762" x2="-4.445" y2="-3.429" width="0.4064" layer="51"/>
</package>
<package name="MICROMATCH6SMD">
<smd name="P$6" x="-3.175" y="2.286" dx="1.5" dy="3.1" layer="1" rot="R180"/>
<smd name="P$5" x="-1.905" y="-2.286" dx="1.5" dy="3.1" layer="1" rot="R180"/>
<smd name="P$4" x="-0.635" y="2.286" dx="1.5" dy="3.1" layer="1" rot="R180"/>
<smd name="P$3" x="0.635" y="-2.286" dx="1.5" dy="3.1" layer="1"/>
<smd name="P$2" x="1.905" y="2.286" dx="1.5" dy="3.1" layer="1"/>
<smd name="P$1" x="3.175" y="-2.286" dx="1.5" dy="3.1" layer="1"/>
<wire x1="-3.175" y1="0.762" x2="-3.175" y2="3.429" width="0.4064" layer="51"/>
<wire x1="-0.635" y1="0.762" x2="-0.635" y2="3.429" width="0.4064" layer="51"/>
<wire x1="1.905" y1="0.762" x2="1.905" y2="3.429" width="0.4064" layer="51"/>
<wire x1="-1.905" y1="-0.762" x2="-1.905" y2="-3.429" width="0.4064" layer="51"/>
<wire x1="0.635" y1="-0.762" x2="0.635" y2="-3.429" width="0.4064" layer="51"/>
<wire x1="3.175" y1="-0.762" x2="3.175" y2="-3.429" width="0.4064" layer="51"/>
<wire x1="5.08" y1="-1.905" x2="5.08" y2="-2.54" width="0.127" layer="21"/>
<wire x1="5.08" y1="-2.54" x2="-5.08" y2="-2.54" width="0.127" layer="21"/>
<wire x1="-5.08" y1="-2.54" x2="-5.08" y2="2.54" width="0.127" layer="21"/>
<wire x1="-5.08" y1="2.54" x2="5.08" y2="2.54" width="0.127" layer="21"/>
<circle x="4.6" y="1.05" radius="0.75" width="0.127" layer="21"/>
<wire x1="5.08" y1="2.54" x2="5.08" y2="1.905" width="0.127" layer="21"/>
<wire x1="5.08" y1="1.905" x2="5.08" y2="1.651" width="0.127" layer="21"/>
<wire x1="5.08" y1="-1.905" x2="3.81" y2="-1.905" width="0.127" layer="21"/>
<wire x1="3.81" y1="-1.905" x2="3.81" y2="1.905" width="0.127" layer="21"/>
<wire x1="3.81" y1="1.905" x2="5.08" y2="1.905" width="0.127" layer="21"/>
<text x="-1.27" y="5.08" size="1.27" layer="25">&gt;NAME</text>
<circle x="4" y="-3" radius="0.25" width="0.5" layer="51"/>
</package>
<package name="MICROMATCH4SMD">
<smd name="P$4" x="-0.635" y="2.286" dx="1.5" dy="3.1" layer="1" rot="R180"/>
<smd name="P$3" x="0.635" y="-2.286" dx="1.5" dy="3.1" layer="1"/>
<smd name="P$2" x="1.905" y="2.286" dx="1.5" dy="3.1" layer="1"/>
<smd name="P$1" x="3.175" y="-2.286" dx="1.5" dy="3.1" layer="1"/>
<wire x1="-0.635" y1="0.762" x2="-0.635" y2="3.429" width="0.4064" layer="51"/>
<wire x1="1.905" y1="0.762" x2="1.905" y2="3.429" width="0.4064" layer="51"/>
<wire x1="0.635" y1="-0.762" x2="0.635" y2="-3.429" width="0.4064" layer="51"/>
<wire x1="3.175" y1="-0.762" x2="3.175" y2="-3.429" width="0.4064" layer="51"/>
<wire x1="5.08" y1="-1.905" x2="5.08" y2="-2.54" width="0.127" layer="21"/>
<wire x1="5.08" y1="-2.54" x2="-2.54" y2="-2.54" width="0.127" layer="21"/>
<wire x1="-2.54" y1="-2.54" x2="-2.54" y2="2.54" width="0.127" layer="21"/>
<wire x1="-2.54" y1="2.54" x2="5.08" y2="2.54" width="0.127" layer="21"/>
<circle x="4.6" y="1.05" radius="0.75" width="0.127" layer="21"/>
<wire x1="5.08" y1="2.54" x2="5.08" y2="1.905" width="0.127" layer="21"/>
<wire x1="5.08" y1="1.905" x2="5.08" y2="1.651" width="0.127" layer="21"/>
<wire x1="5.08" y1="-1.905" x2="3.81" y2="-1.905" width="0.127" layer="21"/>
<wire x1="3.81" y1="-1.905" x2="3.81" y2="1.905" width="0.127" layer="21"/>
<wire x1="3.81" y1="1.905" x2="5.08" y2="1.905" width="0.127" layer="21"/>
<text x="-1.27" y="5.08" size="1.27" layer="25">&gt;NAME</text>
<circle x="4" y="-3" radius="0.25" width="0.5" layer="51"/>
</package>
</packages>
<symbols>
<symbol name="MV">
<wire x1="1.27" y1="0" x2="2.54" y2="0" width="0.1524" layer="94"/>
<wire x1="0" y1="0" x2="1.27" y2="0" width="0.6096" layer="94"/>
<text x="-0.508" y="0.889" size="1.778" layer="95" rot="R180">&gt;NAME</text>
<text x="0" y="0.889" size="1.778" layer="96">&gt;VALUE</text>
<pin name="S" x="5.08" y="0" visible="off" length="short" direction="pas" rot="R180"/>
</symbol>
<symbol name="M">
<wire x1="1.27" y1="0" x2="2.54" y2="0" width="0.1524" layer="94"/>
<wire x1="0" y1="0" x2="1.27" y2="0" width="0.6096" layer="94"/>
<text x="-0.508" y="0.889" size="1.778" layer="95" rot="R180">&gt;NAME</text>
<pin name="S" x="5.08" y="0" visible="off" length="short" direction="pas" rot="R180"/>
</symbol>
</symbols>
<devicesets>
<deviceset name="MICROMATCH-4" prefix="X">
<description>&lt;b&gt;MicroMaTch 4 &lt;/b&gt; 7-215464-4 / 0-215464-4&lt;p&gt;
Drawing Number C-215464&lt;br&gt;
DDEController.pdf</description>
<gates>
<gate name="-1" symbol="MV" x="-2.54" y="2.54" addlevel="always" swaplevel="1"/>
<gate name="-2" symbol="M" x="-2.54" y="0" addlevel="always" swaplevel="1"/>
<gate name="-3" symbol="M" x="-2.54" y="-2.54" addlevel="always" swaplevel="1"/>
<gate name="-4" symbol="M" x="-2.54" y="-5.08" addlevel="always" swaplevel="1"/>
</gates>
<devices>
<device name="" package="CONMOLEX4PIN">
<connects>
<connect gate="-1" pin="S" pad="1"/>
<connect gate="-2" pin="S" pad="2"/>
<connect gate="-3" pin="S" pad="3"/>
<connect gate="-4" pin="S" pad="4"/>
</connects>
<technologies>
<technology name=""/>
</technologies>
</device>
<device name="MICROMATCH4SMD" package="MICROMATCH4SMD">
<connects>
<connect gate="-1" pin="S" pad="P$1"/>
<connect gate="-2" pin="S" pad="P$2"/>
<connect gate="-3" pin="S" pad="P$3"/>
<connect gate="-4" pin="S" pad="P$4"/>
</connects>
<technologies>
<technology name=""/>
</technologies>
</device>
</devices>
</deviceset>
<deviceset name="MICROMATCH-6" prefix="X">
<description>&lt;b&gt;MicroMaTch 6 &lt;/b&gt; 7-215464-6 / 0-215464-6&lt;p&gt;
Drawing Number C-215464&lt;br&gt;
DDEController.pdf</description>
<gates>
<gate name="-1" symbol="MV" x="0" y="5.08" addlevel="always" swaplevel="1"/>
<gate name="-2" symbol="M" x="0" y="2.54" addlevel="always" swaplevel="1"/>
<gate name="-3" symbol="M" x="0" y="0" addlevel="always" swaplevel="1"/>
<gate name="-4" symbol="M" x="0" y="-2.54" addlevel="always" swaplevel="1"/>
<gate name="-5" symbol="M" x="0" y="-5.08" addlevel="always" swaplevel="1"/>
<gate name="-6" symbol="M" x="0" y="-7.62" addlevel="always" swaplevel="1"/>
</gates>
<devices>
<device name="" package="CONMOLEX6PIN">
<connects>
<connect gate="-1" pin="S" pad="1"/>
<connect gate="-2" pin="S" pad="2"/>
<connect gate="-3" pin="S" pad="3"/>
<connect gate="-4" pin="S" pad="4"/>
<connect gate="-5" pin="S" pad="5"/>
<connect gate="-6" pin="S" pad="6"/>
</connects>
<technologies>
<technology name=""/>
</technologies>
</device>
<device name="MICROMATCH6SMD" package="MICROMATCH6SMD">
<connects>
<connect gate="-1" pin="S" pad="P$1"/>
<connect gate="-2" pin="S" pad="P$2"/>
<connect gate="-3" pin="S" pad="P$3"/>
<connect gate="-4" pin="S" pad="P$4"/>
<connect gate="-5" pin="S" pad="P$5"/>
<connect gate="-6" pin="S" pad="P$6"/>
</connects>
<technologies>
<technology name=""/>
</technologies>
</device>
</devices>
</deviceset>
<deviceset name="MICROMATCH-8" prefix="X">
<description>&lt;b&gt;MicroMaTch 8 &lt;/b&gt; 7-215464-8 / 0-215464-8&lt;p&gt;
Drawing Number C-215464&lt;br&gt;
DDEController.pdf</description>
<gates>
<gate name="-1" symbol="MV" x="0" y="7.62" addlevel="always" swaplevel="1"/>
<gate name="-2" symbol="M" x="0" y="5.08" addlevel="always" swaplevel="1"/>
<gate name="-3" symbol="M" x="0" y="2.54" addlevel="always" swaplevel="1"/>
<gate name="-4" symbol="M" x="0" y="0" addlevel="always" swaplevel="1"/>
<gate name="-5" symbol="M" x="0" y="-2.54" addlevel="always" swaplevel="1"/>
<gate name="-6" symbol="M" x="0" y="-5.08" addlevel="always" swaplevel="1"/>
<gate name="-7" symbol="M" x="0" y="-7.62" addlevel="always" swaplevel="1"/>
<gate name="-8" symbol="M" x="0" y="-10.16" addlevel="always" swaplevel="1"/>
</gates>
<devices>
<device name="" package="CONMOLEX8PIN">
<connects>
<connect gate="-1" pin="S" pad="1"/>
<connect gate="-2" pin="S" pad="2"/>
<connect gate="-3" pin="S" pad="3"/>
<connect gate="-4" pin="S" pad="4"/>
<connect gate="-5" pin="S" pad="5"/>
<connect gate="-6" pin="S" pad="6"/>
<connect gate="-7" pin="S" pad="7"/>
<connect gate="-8" pin="S" pad="8"/>
</connects>
<technologies>
<technology name=""/>
</technologies>
</device>
<device name="MICROMATCH8SMD" package="MICROMATCH8SMD">
<connects>
<connect gate="-1" pin="S" pad="P$1"/>
<connect gate="-2" pin="S" pad="P$2"/>
<connect gate="-3" pin="S" pad="P$3"/>
<connect gate="-4" pin="S" pad="P$4"/>
<connect gate="-5" pin="S" pad="P$5"/>
<connect gate="-6" pin="S" pad="P$6"/>
<connect gate="-7" pin="S" pad="P$7"/>
<connect gate="-8" pin="S" pad="P$8"/>
</connects>
<technologies>
<technology name=""/>
</technologies>
</device>
</devices>
</deviceset>
</devicesets>
</library>
</drawing>
</eagle>
